{
  "images" : [
    {
      "idiom" : "universal",
      "filename" : "Skärmavbild 2016-01-15 kl. 18.14.33.png",
      "scale" : "1x"
    },
    {
      "idiom" : "universal",
      "scale" : "2x"
    },
    {
      "idiom" : "universal",
      "scale" : "3x"
    }
  ],
  "info" : {
    "version" : 1,
    "author" : "xcode"
  }
}